{
  "count": 1851,
  "next": "https://ll.thespacedevs.com/2.0.0/launch/?limit=10&next=15&offset=10",
  "previous": null,
  "results": [
    {
      "id": "9279744e-46b2-4eca-adea-f1379672ec81",
      "url": "https://ll.thespacedevs.com/2.0.0/launch/9279744e-46b2-4eca-adea-f1379672ec81/",
      "launch_library_id": 1829,
      "slug": "atlas-lv-3a-samos-2",
      "name": "Atlas LV-3A | Samos 2",
      "status": { "id": 3, "name": "Success" },
      "net": "1961-01-31T20:21:19Z",
      "window_end": "1961-01-31T20:21:19Z",
      "window_start": "1961-01-31T20:21:19Z",
      "inhold": false,
      "tbdtime": false,
      "tbddate": false,
      "probability": 0,
      "holdreason": "",
      "failreason": "",
      "hashtag": "",
      "launch_service_provider": {
        "id": 161,
        "url": "https://ll.thespacedevs.com/2.0.0/agencies/161/",
        "name": "United States Air Force",
        "type": "Government"
      },
      "rocket": {
        "id": 2362,
        "configuration": {
          "id": 183,
          "launch_library_id": 193,
          "url": "https://ll.thespacedevs.com/2.0.0/config/launcher/183/",
          "name": "Atlas Agena B",
          "family": "Atlas",
          "full_name": "Atlas LV-3 Agena B",
          "variant": "LV-3 Agena B"
        }
      },
      "mission": null,
      "pad": {
        "id": 93,
        "url": "https://ll.thespacedevs.com/2.0.0/pad/93/",
        "agency_id": 161,
        "name": "Space Launch Complex 3W",
        "info_url": null,
        "wiki_url": "",
        "map_url": "http://maps.google.com/maps?q=34.644+N,+120.593+W",
        "latitude": "34.644",
        "longitude": "-120.593",
        "location": {
          "id": 11,
          "url": "https://ll.thespacedevs.com/2.0.0/location/11/",
          "name": "Vandenberg AFB, CA, USA",
          "country_code": "USA",
          "map_image": "https://spacelaunchnow-prod-east.nyc3.digitaloceanspaces.com/media/launch_images/location_11_20200803142416.jpg",
          "total_launch_count": 82,
          "total_landing_count": 0
        },
        "map_image": "https://spacelaunchnow-prod-east.nyc3.digitaloceanspaces.com/media/launch_images/pad_93_20200803143225.jpg",
        "total_launch_count": 3
      },
      "webcast_live": false,
      "image": null,
      "infographic": null,
      "program": []
    },
    {
      "id": "c167fb61-648b-4755-9e79-0f049fee985a",
      "url": "https://ll.thespacedevs.com/2.0.0/launch/c167fb61-648b-4755-9e79-0f049fee985a/",
      "launch_library_id": 1830,
      "slug": "molniya-8k78-venera-1va-1",
      "name": "Molniya 8K78 | Venera-1VA 1",
      "status": { "id": 4, "name": "Failure" },
      "net": "1961-02-04T01:18:03Z",
      "window_end": "1961-02-04T01:18:03Z",
      "window_start": "1961-02-04T01:18:03Z",
      "inhold": false,
      "tbdtime": false,
      "tbddate": false,
      "probability": 0,
      "holdreason": "",
      "failreason": "Upper stage failed.",
      "hashtag": "",
      "launch_service_provider": {
        "id": 270,
        "url": "https://ll.thespacedevs.com/2.0.0/agencies/270/",
        "name": "Strategic Missile Troops",
        "type": null
      },
      "rocket": {
        "id": 2363,
        "configuration": {
          "id": 184,
          "launch_library_id": 207,
          "url": "https://ll.thespacedevs.com/2.0.0/config/launcher/184/",
          "name": "Molniya 8K78",
          "family": "Molniya",
          "full_name": "Molniya 8K78",
          "variant": "8K78"
        }
      },
      "mission": null,
      "pad": {
        "id": 32,
        "url": "https://ll.thespacedevs.com/2.0.0/pad/32/",
        "agency_id": null,
        "name": "1/5",
        "info_url": null,
        "wiki_url": "",
        "map_url": "https://www.google.com/maps/place/45°55'12.0\"N+63°20'31.2\"E",
        "latitude": "45.92",
        "longitude": "63.342",
        "location": {
          "id": 15,
          "url": "https://ll.thespacedevs.com/2.0.0/location/15/",
          "name": "Baikonur Cosmodrome, Republic of Kazakhstan",
          "country_code": "KAZ",
          "map_image": "https://spacelaunchnow-prod-east.nyc3.digitaloceanspaces.com/media/launch_images/location_15_20200803142517.jpg",
          "total_launch_count": 465,
          "total_landing_count": 0
        },
        "map_image": "https://spacelaunchnow-prod-east.nyc3.digitaloceanspaces.com/media/launch_images/pad_32_20200803143513.jpg",
        "total_launch_count": 290
      },
      "webcast_live": false,
      "image": "https://spacelaunchnow-prod-east.nyc3.digitaloceanspaces.com/media/launcher_images/molniya25208k78_image_20191201210000.jpg",
      "infographic": null,
      "program": []
    },
    {
      "id": "81b1848c-f813-4d2a-b318-38b94ac481a0",
      "url": "https://ll.thespacedevs.com/2.0.0/launch/81b1848c-f813-4d2a-b318-38b94ac481a0/",
      "launch_library_id": 1831,
      "slug": "molniya-8k78-venera-1va-2",
      "name": "Molniya 8K78 | Venera-1VA 2",
      "status": { "id": 3, "name": "Success" },
      "net": "1961-02-12T00:43:46Z",
      "window_end": "1961-02-12T00:43:46Z",
      "window_start": "1961-02-12T00:43:46Z",
      "inhold": false,
      "tbdtime": false,
      "tbddate": false,
      "probability": 0,
      "holdreason": "",
      "failreason": "",
      "hashtag": "",
      "launch_service_provider": {
        "id": 270,
        "url": "https://ll.thespacedevs.com/2.0.0/agencies/270/",
        "name": "Strategic Missile Troops",
        "type": null
      },
      "rocket": {
        "id": 2364,
        "configuration": {
          "id": 184,
          "launch_library_id": 207,
          "url": "https://ll.thespacedevs.com/2.0.0/config/launcher/184/",
          "name": "Molniya 8K78",
          "family": "Molniya",
          "full_name": "Molniya 8K78",
          "variant": "8K78"
        }
      },
      "mission": null,
      "pad": {
        "id": 32,
        "url": "https://ll.thespacedevs.com/2.0.0/pad/32/",
        "agency_id": null,
        "name": "1/5",
        "info_url": null,
        "wiki_url": "",
        "map_url": "https://www.google.com/maps/place/45°55'12.0\"N+63°20'31.2\"E",
        "latitude": "45.92",
        "longitude": "63.342",
        "location": {
          "id": 15,
          "url": "https://ll.thespacedevs.com/2.0.0/location/15/",
          "name": "Baikonur Cosmodrome, Republic of Kazakhstan",
          "country_code": "KAZ",
          "map_image": "https://spacelaunchnow-prod-east.nyc3.digitaloceanspaces.com/media/launch_images/location_15_20200803142517.jpg",
          "total_launch_count": 465,
          "total_landing_count": 0
        },
        "map_image": "https://spacelaunchnow-prod-east.nyc3.digitaloceanspaces.com/media/launch_images/pad_32_20200803143513.jpg",
        "total_launch_count": 290
      },
      "webcast_live": false,
      "image": "https://spacelaunchnow-prod-east.nyc3.digitaloceanspaces.com/media/launcher_images/molniya25208k78_image_20191201210000.jpg",
      "infographic": null,
      "program": []
    },
    {
      "id": "fbecd232-0ae0-48ab-91ba-7048317ddd1d",
      "url": "https://ll.thespacedevs.com/2.0.0/launch/fbecd232-0ae0-48ab-91ba-7048317ddd1d/",
      "launch_library_id": 1832,
      "slug": "scout-x-1-explorer-9",
      "name": "Scout X-1 | Explorer 9",
      "status": { "id": 3, "name": "Success" },
      "net": "1961-02-16T13:05:00Z",
      "window_end": "1961-02-16T13:05:00Z",
      "window_start": "1961-02-16T13:05:00Z",
      "inhold": false,
      "tbdtime": false,
      "tbddate": false,
      "probability": 0,
      "holdreason": "",
      "failreason": "",
      "hashtag": "",
      "launch_service_provider": {
        "id": 44,
        "url": "https://ll.thespacedevs.com/2.0.0/agencies/44/",
        "name": "National Aeronautics and Space Administration",
        "type": "Government"
      },
      "rocket": {
        "id": 2365,
        "configuration": {
          "id": 185,
          "launch_library_id": 208,
          "url": "https://ll.thespacedevs.com/2.0.0/config/launcher/185/",
          "name": "Scout X-1",
          "family": "Scout",
          "full_name": "Scout X-1",
          "variant": "X-1"
        }
      },
      "mission": null,
      "pad": {
        "id": 94,
        "url": "https://ll.thespacedevs.com/2.0.0/pad/94/",
        "agency_id": 44,
        "name": "Launch Area 3",
        "info_url": null,
        "wiki_url": "",
        "map_url": "http://maps.google.com/maps?q=37.8495N,+75.4725+W",
        "latitude": "37.8495",
        "longitude": "-75.4725",
        "location": {
          "id": 21,
          "url": "https://ll.thespacedevs.com/2.0.0/location/21/",
          "name": "Wallops Island, Virginia, USA",
          "country_code": "USA",
          "map_image": "https://spacelaunchnow-prod-east.nyc3.digitaloceanspaces.com/media/launch_images/location_21_20200803142423.jpg",
          "total_launch_count": 20,
          "total_landing_count": 0
        },
        "map_image": "https://spacelaunchnow-prod-east.nyc3.digitaloceanspaces.com/media/launch_images/pad_94_20200803143206.jpg",
        "total_launch_count": 3
      },
      "webcast_live": false,
      "image": "https://spacelaunchnow-prod-east.nyc3.digitaloceanspaces.com/media/launcher_images/scout2520x-1_image_20190324192636.jpeg",
      "infographic": null,
      "program": []
    },
    {
      "id": "a5cfc4dc-c31a-4676-8614-e8eb8b84010a",
      "url": "https://ll.thespacedevs.com/2.0.0/launch/a5cfc4dc-c31a-4676-8614-e8eb8b84010a/",
      "launch_library_id": 1833,
      "slug": "thor-dm-21-agena-b-discoverer-20",
      "name": "Thor DM-21 Agena-B | Discoverer 20",
      "status": { "id": 3, "name": "Success" },
      "net": "1961-02-17T20:25:02Z",
      "window_end": "1961-02-17T20:25:02Z",
      "window_start": "1961-02-17T20:25:02Z",
      "inhold": false,
      "tbdtime": false,
      "tbddate": false,
      "probability": 0,
      "holdreason": "",
      "failreason": "",
      "hashtag": "",
      "launch_service_provider": {
        "id": 161,
        "url": "https://ll.thespacedevs.com/2.0.0/agencies/161/",
        "name": "United States Air Force",
        "type": "Government"
      },
      "rocket": {
        "id": 2366,
        "configuration": {
          "id": 186,
          "launch_library_id": 201,
          "url": "https://ll.thespacedevs.com/2.0.0/config/launcher/186/",
          "name": "Thor DM-21 Agena-B",
          "family": "Thor",
          "full_name": "Thor DM-21 Agena-B",
          "variant": ""
        }
      },
      "mission": null,
      "pad": {
        "id": 95,
        "url": "https://ll.thespacedevs.com/2.0.0/pad/95/",
        "agency_id": 161,
        "name": "Space Launch Complex 1W",
        "info_url": null,
        "wiki_url": "",
        "map_url": "http://maps.google.com/maps?q=34.7572+N,+120.6303+W",
        "latitude": "34.7572",
        "longitude": "-120.6303",
        "location": {
          "id": 11,
          "url": "https://ll.thespacedevs.com/2.0.0/location/11/",
          "name": "Vandenberg AFB, CA, USA",
          "country_code": "USA",
          "map_image": "https://spacelaunchnow-prod-east.nyc3.digitaloceanspaces.com/media/launch_images/location_11_20200803142416.jpg",
          "total_launch_count": 82,
          "total_landing_count": 0
        },
        "map_image": "https://spacelaunchnow-prod-east.nyc3.digitaloceanspaces.com/media/launch_images/pad_95_20200803143209.jpg",
        "total_launch_count": 9
      },
      "webcast_live": false,
      "image": "https://spacelaunchnow-prod-east.nyc3.digitaloceanspaces.com/media/launcher_images/thor2520dm-212520agena-b_image_20190414123658.jpg",
      "infographic": null,
      "program": []
    },
    {
      "id": "bc175a72-2476-41b1-a998-694a3bb75ff8",
      "url": "https://ll.thespacedevs.com/2.0.0/launch/bc175a72-2476-41b1-a998-694a3bb75ff8/",
      "launch_library_id": 1834,
      "slug": "thor-dm-21-agena-b-discoverer-21-midas-rm-2",
      "name": "Thor DM-21 Agena-B | Discoverer 21 (MIDAS RM-2)",
      "status": { "id": 3, "name": "Success" },
      "net": "1961-02-18T22:57:58Z",
      "window_end": "1961-02-18T22:57:58Z",
      "window_start": "1961-02-18T22:57:58Z",
      "inhold": false,
      "tbdtime": false,
      "tbddate": false,
      "probability": 0,
      "holdreason": "",
      "failreason": "",
      "hashtag": "",
      "launch_service_provider": {
        "id": 161,
        "url": "https://ll.thespacedevs.com/2.0.0/agencies/161/",
        "name": "United States Air Force",
        "type": "Government"
      },
      "rocket": {
        "id": 2367,
        "configuration": {
          "id": 186,
          "launch_library_id": 201,
          "url": "https://ll.thespacedevs.com/2.0.0/config/launcher/186/",
          "name": "Thor DM-21 Agena-B",
          "family": "Thor",
          "full_name": "Thor DM-21 Agena-B",
          "variant": ""
        }
      },
      "mission": null,
      "pad": {
        "id": 96,
        "url": "https://ll.thespacedevs.com/2.0.0/pad/96/",
        "agency_id": 161,
        "name": "Space Launch Complex 1E",
        "info_url": null,
        "wiki_url": "",
        "map_url": "http://maps.google.com/maps?q=34.756+N,+120.6263+W",
        "latitude": "34.756",
        "longitude": "-120.6263",
        "location": {
          "id": 11,
          "url": "https://ll.thespacedevs.com/2.0.0/location/11/",
          "name": "Vandenberg AFB, CA, USA",
          "country_code": "USA",
          "map_image": "https://spacelaunchnow-prod-east.nyc3.digitaloceanspaces.com/media/launch_images/location_11_20200803142416.jpg",
          "total_launch_count": 82,
          "total_landing_count": 0
        },
        "map_image": "https://spacelaunchnow-prod-east.nyc3.digitaloceanspaces.com/media/launch_images/pad_96_20200803143221.jpg",
        "total_launch_count": 5
      },
      "webcast_live": false,
      "image": "https://spacelaunchnow-prod-east.nyc3.digitaloceanspaces.com/media/launcher_images/thor2520dm-212520agena-b_image_20190414123658.jpg",
      "infographic": null,
      "program": []
    },
    {
      "id": "c90b2db4-d194-4e68-9a5b-df53234e7a1b",
      "url": "https://ll.thespacedevs.com/2.0.0/launch/c90b2db4-d194-4e68-9a5b-df53234e7a1b/",
      "launch_library_id": 1835,
      "slug": "thor-dm-21-ablestar-transit-3b-lofti-1",
      "name": "Thor DM-21 Ablestar | Transit 3B & LOFTI-1",
      "status": { "id": 7, "name": "Partial Failure" },
      "net": "1961-02-22T03:45:00Z",
      "window_end": "1961-02-22T03:45:00Z",
      "window_start": "1961-02-22T03:45:00Z",
      "inhold": false,
      "tbdtime": false,
      "tbddate": false,
      "probability": 0,
      "holdreason": "",
      "failreason": "Failed to seperate from upper stage, failed to place into correct orbit.",
      "hashtag": "",
      "launch_service_provider": {
        "id": 161,
        "url": "https://ll.thespacedevs.com/2.0.0/agencies/161/",
        "name": "United States Air Force",
        "type": "Government"
      },
      "rocket": {
        "id": 2368,
        "configuration": {
          "id": 187,
          "launch_library_id": 202,
          "url": "https://ll.thespacedevs.com/2.0.0/config/launcher/187/",
          "name": "Thor DM-21 Ablestar",
          "family": "Thor-Ablestar",
          "full_name": "Thor DM-21 Ablestar",
          "variant": "DM-21"
        }
      },
      "mission": null,
      "pad": {
        "id": 1,
        "url": "https://ll.thespacedevs.com/2.0.0/pad/1/",
        "agency_id": null,
        "name": "Space Launch Complex 17B",
        "info_url": null,
        "wiki_url": "",
        "map_url": "http://maps.google.com/maps?q=28.445800,-80.565700",
        "latitude": "28.4458",
        "longitude": "-80.5657",
        "location": {
          "id": 12,
          "url": "https://ll.thespacedevs.com/2.0.0/location/12/",
          "name": "Cape Canaveral, FL, USA",
          "country_code": "USA",
          "map_image": "https://spacelaunchnow-prod-east.nyc3.digitaloceanspaces.com/media/launch_images/location_12_20200803142519.jpg",
          "total_launch_count": 204,
          "total_landing_count": 0
        },
        "map_image": "https://spacelaunchnow-prod-east.nyc3.digitaloceanspaces.com/media/launch_images/pad_1_20200803143208.jpg",
        "total_launch_count": 9
      },
      "webcast_live": false,
      "image": "https://spacelaunchnow-prod-east.nyc3.digitaloceanspaces.com/media/launcher_images/thor2520dm-212520ablestar_image_20191201205131.jpg",
      "infographic": null,
      "program": []
    },
    {
      "id": "9108d8aa-7a81-4cc3-95fd-0ae43e8673cf",
      "url": "https://ll.thespacedevs.com/2.0.0/launch/9108d8aa-7a81-4cc3-95fd-0ae43e8673cf/",
      "launch_library_id": 1836,
      "slug": "juno-ii-s-45",
      "name": "Juno II | S-45",
      "status": { "id": 4, "name": "Failure" },
      "net": "1961-02-25T00:13:16Z",
      "window_end": "1961-02-25T00:13:16Z",
      "window_start": "1961-02-25T00:13:16Z",
      "inhold": false,
      "tbdtime": false,
      "tbddate": false,
      "probability": 0,
      "holdreason": "",
      "failreason": "Third stage failed to ignite.",
      "hashtag": "",
      "launch_service_provider": {
        "id": 271,
        "url": "https://ll.thespacedevs.com/2.0.0/agencies/271/",
        "name": "Army Ballistic Missile Agency",
        "type": null
      },
      "rocket": {
        "id": 2369,
        "configuration": {
          "id": 188,
          "launch_library_id": 206,
          "url": "https://ll.thespacedevs.com/2.0.0/config/launcher/188/",
          "name": "Juno II",
          "family": "Juno",
          "full_name": "Juno II",
          "variant": ""
        }
      },
      "mission": null,
      "pad": {
        "id": 97,
        "url": "https://ll.thespacedevs.com/2.0.0/pad/97/",
        "agency_id": 161,
        "name": "Space Launch Complex 26B",
        "info_url": null,
        "wiki_url": "https://en.wikipedia.org/wiki/Cape_Canaveral_Air_Force_Station_Launch_Complex_26",
        "map_url": "http://www.google.com/maps?q=28.4433,-80.5712",
        "latitude": "28.4433",
        "longitude": "-80.5712",
        "location": {
          "id": 12,
          "url": "https://ll.thespacedevs.com/2.0.0/location/12/",
          "name": "Cape Canaveral, FL, USA",
          "country_code": "USA",
          "map_image": "https://spacelaunchnow-prod-east.nyc3.digitaloceanspaces.com/media/launch_images/location_12_20200803142519.jpg",
          "total_launch_count": 204,
          "total_landing_count": 0
        },
        "map_image": "https://spacelaunchnow-prod-east.nyc3.digitaloceanspaces.com/media/launch_images/pad_97_20200803143224.jpg",
        "total_launch_count": 3
      },
      "webcast_live": false,
      "image": "https://spacelaunchnow-prod-east.nyc3.digitaloceanspaces.com/media/launcher_images/juno2520ii_image_20191201204701.jpeg",
      "infographic": null,
      "program": []
    },
    {
      "id": "7e00f7c3-7648-450a-a69b-6bc94e317d04",
      "url": "https://ll.thespacedevs.com/2.0.0/launch/7e00f7c3-7648-450a-a69b-6bc94e317d04/",
      "launch_library_id": 1837,
      "slug": "vostok-k-sputnik-9",
      "name": "Vostok-K | Sputnik 9",
      "status": { "id": 3, "name": "Success" },
      "net": "1961-03-09T06:29:00Z",
      "window_end": "1961-03-09T06:29:00Z",
      "window_start": "1961-03-09T06:29:00Z",
      "inhold": false,
      "tbdtime": false,
      "tbddate": false,
      "probability": 0,
      "holdreason": "",
      "failreason": "",
      "hashtag": "",
      "launch_service_provider": {
        "id": 270,
        "url": "https://ll.thespacedevs.com/2.0.0/agencies/270/",
        "name": "Strategic Missile Troops",
        "type": null
      },
      "rocket": {
        "id": 2370,
        "configuration": {
          "id": 103,
          "launch_library_id": 139,
          "url": "https://ll.thespacedevs.com/2.0.0/config/launcher/103/",
          "name": "Vostok",
          "family": "R-7",
          "full_name": "Vostok-K",
          "variant": "K"
        }
      },
      "mission": null,
      "pad": {
        "id": 32,
        "url": "https://ll.thespacedevs.com/2.0.0/pad/32/",
        "agency_id": null,
        "name": "1/5",
        "info_url": null,
        "wiki_url": "",
        "map_url": "https://www.google.com/maps/place/45°55'12.0\"N+63°20'31.2\"E",
        "latitude": "45.92",
        "longitude": "63.342",
        "location": {
          "id": 15,
          "url": "https://ll.thespacedevs.com/2.0.0/location/15/",
          "name": "Baikonur Cosmodrome, Republic of Kazakhstan",
          "country_code": "KAZ",
          "map_image": "https://spacelaunchnow-prod-east.nyc3.digitaloceanspaces.com/media/launch_images/location_15_20200803142517.jpg",
          "total_launch_count": 465,
          "total_landing_count": 0
        },
        "map_image": "https://spacelaunchnow-prod-east.nyc3.digitaloceanspaces.com/media/launch_images/pad_32_20200803143513.jpg",
        "total_launch_count": 290
      },
      "webcast_live": false,
      "image": "https://spacelaunchnow-prod-east.nyc3.digitaloceanspaces.com/media/launcher_images/vostok_image_20191104130128.jpg",
      "infographic": null,
      "program": [
        {
          "id": 9,
          "url": "https://ll.thespacedevs.com/2.0.0/program/9/",
          "name": "Vostok",
          "description": "The Vostok programme was a Soviet human spaceflight project to put the first Soviet citizens into low Earth orbit and return them safely. Competing with the United States Project Mercury, it succeeded in placing the first human into space, Yuri Gagarin, in a single orbit in Vostok 1 on April 12, 1961.",
          "agencies": [
            {
              "id": 66,
              "url": "https://ll.thespacedevs.com/2.0.0/agencies/66/",
              "name": "Soviet Space Program",
              "type": "Government"
            }
          ],
          "image_url": "https://spacelaunchnow-prod-east.nyc3.digitaloceanspaces.com/media/program_images/vostok_program_20200820204123.jpg",
          "start_date": "1961-04-12T06:07:00Z",
          "end_date": "1963-06-19T08:20:00Z",
          "info_url": null,
          "wiki_url": "https://en.wikipedia.org/wiki/Vostok_programme"
        }
      ]
    },
    {
      "id": "cf87eb87-1235-4c25-99d7-2896cc8e1dbf",
      "url": "https://ll.thespacedevs.com/2.0.0/launch/cf87eb87-1235-4c25-99d7-2896cc8e1dbf/",
      "launch_library_id": 1838,
      "slug": "vostok-k-sputnik-10",
      "name": "Vostok-K | Sputnik 10",
      "status": { "id": 3, "name": "Success" },
      "net": "1961-03-25T05:54:00Z",
      "window_end": "1961-03-25T05:54:00Z",
      "window_start": "1961-03-25T05:54:00Z",
      "inhold": false,
      "tbdtime": false,
      "tbddate": false,
      "probability": 0,
      "holdreason": "",
      "failreason": "",
      "hashtag": "",
      "launch_service_provider": {
        "id": 270,
        "url": "https://ll.thespacedevs.com/2.0.0/agencies/270/",
        "name": "Strategic Missile Troops",
        "type": null
      },
      "rocket": {
        "id": 2371,
        "configuration": {
          "id": 103,
          "launch_library_id": 139,
          "url": "https://ll.thespacedevs.com/2.0.0/config/launcher/103/",
          "name": "Vostok",
          "family": "R-7",
          "full_name": "Vostok-K",
          "variant": "K"
        }
      },
      "mission": null,
      "pad": {
        "id": 32,
        "url": "https://ll.thespacedevs.com/2.0.0/pad/32/",
        "agency_id": null,
        "name": "1/5",
        "info_url": null,
        "wiki_url": "",
        "map_url": "https://www.google.com/maps/place/45°55'12.0\"N+63°20'31.2\"E",
        "latitude": "45.92",
        "longitude": "63.342",
        "location": {
          "id": 15,
          "url": "https://ll.thespacedevs.com/2.0.0/location/15/",
          "name": "Baikonur Cosmodrome, Republic of Kazakhstan",
          "country_code": "KAZ",
          "map_image": "https://spacelaunchnow-prod-east.nyc3.digitaloceanspaces.com/media/launch_images/location_15_20200803142517.jpg",
          "total_launch_count": 465,
          "total_landing_count": 0
        },
        "map_image": "https://spacelaunchnow-prod-east.nyc3.digitaloceanspaces.com/media/launch_images/pad_32_20200803143513.jpg",
        "total_launch_count": 290
      },
      "webcast_live": false,
      "image": "https://spacelaunchnow-prod-east.nyc3.digitaloceanspaces.com/media/launcher_images/vostok_image_20191104130128.jpg",
      "infographic": null,
      "program": [
        {
          "id": 9,
          "url": "https://ll.thespacedevs.com/2.0.0/program/9/",
          "name": "Vostok",
          "description": "The Vostok programme was a Soviet human spaceflight project to put the first Soviet citizens into low Earth orbit and return them safely. Competing with the United States Project Mercury, it succeeded in placing the first human into space, Yuri Gagarin, in a single orbit in Vostok 1 on April 12, 1961.",
          "agencies": [
            {
              "id": 66,
              "url": "https://ll.thespacedevs.com/2.0.0/agencies/66/",
              "name": "Soviet Space Program",
              "type": "Government"
            }
          ],
          "image_url": "https://spacelaunchnow-prod-east.nyc3.digitaloceanspaces.com/media/program_images/vostok_program_20200820204123.jpg",
          "start_date": "1961-04-12T06:07:00Z",
          "end_date": "1963-06-19T08:20:00Z",
          "info_url": null,
          "wiki_url": "https://en.wikipedia.org/wiki/Vostok_programme"
        }
      ]
    }
  ]
}
